Introductie op multilevel analyse in R met lme4 en tidyverse
…
Student karakteristieken: score op sociaal-economische status (SES), in afwijking van het school SES gemiddelde (ses.dev).

School karakteristieken: gemiddelde van de school-SES (mean.ses) en de school type/sector (Public vs Catholic, sector).

Pakketten actief maken (zie code, niet in dit bestand zichtbaar).

Vervolgens de data laden.

load("multilevel_data.rda")

Laten we de data eens bekijken.

stud_data

# A tibble: 7,185 × 5
   school minority sex       ses mathach
   <chr>  <fct>    <fct>   <dbl>   <dbl>
 1 1224   No       Female -1.53    5.88 
 2 1224   No       Female -0.588  19.7  
 3 1224   No       Male   -0.528  20.3  
 4 1224   No       Male   -0.668   8.78 
 5 1224   No       Male   -0.158  17.9  
 6 1224   No       Male    0.022   4.58 
 7 1224   No       Female -0.618  -2.83 
 8 1224   No       Male   -0.998   0.523
 9 1224   No       Female -0.888   1.53 
10 1224   No       Male   -0.458  21.5  
# … with 7,175 more rows

school_data

# A tibble: 160 × 2
   school sector  
 * <chr>  <fct>   
 1 1224   Public  
 2 1288   Public  
 3 1296   Public  
 4 1308   Catholic
 5 1317   Catholic
 6 1358   Public  
 7 1374   Public  
 8 1433   Catholic
 9 1436   Catholic
10 1461   Public  
# … with 150 more rows

Hoeveel scholen zitten erin?

stud_data %>%
  pull(school) %>%
  n_distinct

[1] 160

Hoeveel studenten zitten er op iedere school (school-omvang)?

stud_data %>%
  count(school)

# A tibble: 160 × 2
   school     n
   <chr>  <int>
 1 1224      47
 2 1288      25
 3 1296      48
 4 1308      20
 5 1317      48
 6 1358      30
 7 1374      28
 8 1433      35
 9 1436      44
10 1461      33
# … with 150 more rows

Sorteer het op school-omvang

stud_data %>%
  count(school, sort = TRUE)

# A tibble: 160 × 2
   school     n
   <chr>  <int>
 1 2305      67
 2 5619      66
 3 4292      65
 4 3610      64
 5 4042      64
 6 8857      64
 7 4530      63
 8 1477      62
 9 2277      61
10 4642      61
# … with 150 more rows
…
# A tibble: 1 × 1
  `mean(n)`
      <dbl>
1      44.9

Bereken het gemiddelde student-SES op elke school

stud_data %<>%                      # Gebruik marittr %<>% operator: pipe + bereken
  group_by(school) %>%              # Groepeer data frame per school voor mutate 
  mutate(mean.ses= mean(ses)) %>%   # Creeer mean(ses) per school
  ungroup                           # Ungroup data frame

stud_data

# A tibble: 7,185 × 6
   school minority sex       ses mathach mean.ses
   <chr>  <fct>    <fct>   <dbl>   <dbl>    <dbl>
 1 1224   No       Female -1.53    5.88    -0.434
 2 1224   No       Female -0.588  19.7     -0.434
 3 1224   No       Male   -0.528  20.3     -0.434
 4 1224   No       Male   -0.668   8.78    -0.434
 5 1224   No       Male   -0.158  17.9     -0.434
 6 1224   No       Male    0.022   4.58    -0.434
 7 1224   No       Female -0.618  -2.83    -0.434
 8 1224   No       Male   -0.998   0.523   -0.434
 9 1224   No       Female -0.888   1.53    -0.434
10 1224   No       Male   -0.458  21.5     -0.434
# … with 7,175 more rows

Laat de student’s SES-afwijking van het school-gemiddelde zien.

(stud_data %<>% 
    mutate(ses.dev = ses - mean.ses))

# A tibble: 7,185 × 7
   school minority sex       ses mathach mean.ses ses.dev
   <chr>  <fct>    <fct>   <dbl>   <dbl>    <dbl>   <dbl>
 1 1224   No       Female -1.53    5.88    -0.434 -1.09  
 2 1224   No       Female -0.588  19.7     -0.434 -0.154 
 3 1224   No       Male   -0.528  20.3     -0.434 -0.0936
 4 1224   No       Male   -0.668   8.78    -0.434 -0.234 
 5 1224   No       Male   -0.158  17.9     -0.434  0.276 
 6 1224   No       Male    0.022   4.58    -0.434  0.456 
 7 1224   No       Female -0.618  -2.83    -0.434 -0.184 
 8 1224   No       Male   -0.998   0.523   -0.434 -0.564 
 9 1224   No       Female -0.888   1.53    -0.434 -0.454 
10 1224   No       Male   -0.458  21.5     -0.434 -0.0236
# … with 7,175 more rows

Laten we de twee datasets combineren.

df <- left_join(stud_data, school_data, by="school")

df

# A tibble: 7,185 × 8
   school minority sex       ses mathach mean.ses ses.dev sector
   <chr>  <fct>    <fct>   <dbl>   <dbl>    <dbl>   <dbl> <fct> 
 1 1224   No       Female -1.53    5.88    -0.434 -1.09   Public
 2 1224   No       Female -0.588  19.7     -0.434 -0.154  Public
 3 1224   No       Male   -0.528  20.3     -0.434 -0.0936 Public
 4 1224   No       Male   -0.668   8.78    -0.434 -0.234  Public
 5 1224   No       Male   -0.158  17.9     -0.434  0.276  Public
 6 1224   No       Male    0.022   4.58    -0.434  0.456  Public
 7 1224   No       Female -0.618  -2.83    -0.434 -0.184  Public
 8 1224   No       Male   -0.998   0.523   -0.434 -0.564  Public
 9 1224   No       Female -0.888   1.53    -0.434 -0.454  Public
10 1224   No       Male   -0.458  21.5     -0.434 -0.0236 Public
# … with 7,175 more rows
…
school.IDs

 [1] "5667" "4223" "9198" "4253" "5650" "8150" "5761" "2658" "3838" "8193"
[11] "4292" "7364" "3992" "5404" "5192" "1462" "4042" "3020" "7172" "1477"

# Filter data op juist deze school IDs
(df.cat <- df %>%
    filter(school %in% school.IDs))

# A tibble: 1,011 × 8
   school minority sex      ses mathach mean.ses ses.dev sector  
   <fct>  <fct>    <fct>  <dbl>   <dbl>    <dbl>   <dbl> <fct>   
 1 1462   Yes      Male   0.162    1.97   -0.669  0.831  Catholic
 2 1462   Yes      Male  -0.758    7.72   -0.669 -0.0886 Catholic
 3 1462   Yes      Male  -0.708   19.0    -0.669 -0.0386 Catholic
 4 1462   Yes      Male  -0.818   20.1    -0.669 -0.149  Catholic
 5 1462   Yes      Male  -1.92    22.3    -0.669 -1.25   Catholic
 6 1462   Yes      Male  -0.948   14.3    -0.669 -0.279  Catholic
 7 1462   Yes      Male  -0.798   10.2    -0.669 -0.129  Catholic
 8 1462   Yes      Male  -1.46     9.61   -0.669 -0.789  Catholic
 9 1462   Yes      Male  -0.158    6.12   -0.669  0.511  Catholic
10 1462   Yes      Male  -0.378   23.8    -0.669  0.291  Catholic
# … with 1,001 more rows
…
- Verdeling van schattingen van intercept en helling per schoolgemiddelde SES, per schoolsector (scatterplots).

Dus, schat een lineair model voor uitkomstvariabele mathach zoals voorspeld door ses.dev, apart voor elk van de 160 scholen.

# Allereerst, nest het studenten dataframe per school
nested.df <- df %>% 
  group_by(school) %>%
  nest()

# Dit creeert een school-niveau dataframe (data rij = school), met in  
# schoolrij een student niveau dataframe voor die school.
nested.df

# A tibble: 160 × 2
# Groups:   school [160]
   school data             
   <fct>  <list>           
 1 1224   <tibble [47 × 7]>
 2 1288   <tibble [25 × 7]>
 3 1296   <tibble [48 × 7]>
 4 1308   <tibble [20 × 7]>
 5 1317   <tibble [48 × 7]>
 6 1358   <tibble [30 × 7]>
 7 1374   <tibble [28 × 7]>
 8 1433   <tibble [35 × 7]>
 9 1436   <tibble [44 × 7]>
10 1461   <tibble [33 × 7]>
# … with 150 more rows
…
# A tibble: 1 × 2
# Groups:   school [1]
  school data             
  <fct>  <list>           
1 1224   <tibble [47 × 7]>

## Niet genest
nested.df %>%
  filter(school=="1224") %>%
  dplyr::select(school, data) %>%
  unnest(cols = c(data))

# A tibble: 47 × 8
# Groups:   school [1]
   school minority sex       ses mathach mean.ses ses.dev sector
   <fct>  <fct>    <fct>   <dbl>   <dbl>    <dbl>   <dbl> <fct> 
 1 1224   No       Female -1.53    5.88    -0.434 -1.09   Public
 2 1224   No       Female -0.588  19.7     -0.434 -0.154  Public
 3 1224   No       Male   -0.528  20.3     -0.434 -0.0936 Public
 4 1224   No       Male   -0.668   8.78    -0.434 -0.234  Public
 5 1224   No       Male   -0.158  17.9     -0.434  0.276  Public
 6 1224   No       Male    0.022   4.58    -0.434  0.456  Public
 7 1224   No       Female -0.618  -2.83    -0.434 -0.184  Public
 8 1224   No       Male   -0.998   0.523   -0.434 -0.564  Public
 9 1224   No       Female -0.888   1.53    -0.434 -0.454  Public
10 1224   No       Male   -0.458  21.5     -0.434 -0.0236 Public
# … with 37 more rows

# Of kijk naar het eerste element van nested.df$data
nested.df$data[[1]]

# A tibble: 47 × 7
   minority sex       ses mathach mean.ses ses.dev sector
   <fct>    <fct>   <dbl>   <dbl>    <dbl>   <dbl> <fct> 
 1 No       Female -1.53    5.88    -0.434 -1.09   Public
 2 No       Female -0.588  19.7     -0.434 -0.154  Public
 3 No       Male   -0.528  20.3     -0.434 -0.0936 Public
 4 No       Male   -0.668   8.78    -0.434 -0.234  Public
 5 No       Male   -0.158  17.9     -0.434  0.276  Public
 6 No       Male    0.022   4.58    -0.434  0.456  Public
 7 No       Female -0.618  -2.83    -0.434 -0.184  Public
 8 No       Male   -0.998   0.523   -0.434 -0.564  Public
 9 No       Female -0.888   1.53    -0.434 -0.454  Public
10 No       Male   -0.458  21.5     -0.434 -0.0236 Public
# … with 37 more rows

# Dat kan ook met tidyverse syntax
nested.df %>%
  pull(data) %>%
  extract2(1)

# A tibble: 47 × 7
   minority sex       ses mathach mean.ses ses.dev sector
   <fct>    <fct>   <dbl>   <dbl>    <dbl>   <dbl> <fct> 
 1 No       Female -1.53    5.88    -0.434 -1.09   Public
 2 No       Female -0.588  19.7     -0.434 -0.154  Public
 3 No       Male   -0.528  20.3     -0.434 -0.0936 Public
 4 No       Male   -0.668   8.78    -0.434 -0.234  Public
 5 No       Male   -0.158  17.9     -0.434  0.276  Public
 6 No       Male    0.022   4.58    -0.434  0.456  Public
 7 No       Female -0.618  -2.83    -0.434 -0.184  Public
 8 No       Male   -0.998   0.523   -0.434 -0.564  Public
 9 No       Female -0.888   1.53    -0.434 -0.454  Public
10 No       Male   -0.458  21.5     -0.434 -0.0236 Public
# … with 37 more rows
…
length(lmodels)

[1] 160

In plaats van deze list als een apart object, kunnen we nu een nieuwe kolom maken in nested.df, elk model in een schoolrij van nested.df.

nested.df %<>%
  mutate(model = purrr::map(data, 
                            ~ lm(mathach ~ ses.dev, data= .x)))

# Resultaat
nested.df

# A tibble: 160 × 3
# Groups:   school [160]
   school data              model 
   <fct>  <list>            <list>
 1 1224   <tibble [47 × 7]> <lm>  
 2 1288   <tibble [25 × 7]> <lm>  
 3 1296   <tibble [48 × 7]> <lm>  
 4 1308   <tibble [20 × 7]> <lm>  
 5 1317   <tibble [48 × 7]> <lm>  
 6 1358   <tibble [30 × 7]> <lm>  
 7 1374   <tibble [28 × 7]> <lm>  
 8 1433   <tibble [35 × 7]> <lm>  
 9 1436   <tibble [44 × 7]> <lm>  
10 1461   <tibble [33 × 7]> <lm>  
# … with 150 more rows
…
# A tibble: 2 × 5
  term        estimate std.error statistic  p.value
  <chr>          <dbl>     <dbl>     <dbl>    <dbl>
1 (Intercept)     9.72      1.10      8.87 1.94e-11
2 ses.dev         2.51      1.77      1.42 1.62e- 1

Laten we nu dezelfde code gebruiken via ‘mutate’ om opgeschoonde resultaten voor alle modellen (alle scholen) te krijgen

nested.df %<>%
  mutate(model.results = purrr::map(model, 
                            broom::tidy)
  )
nested.df

# A tibble: 160 × 4
# Groups:   school [160]
   school data              model  model.results   
   <fct>  <list>            <list> <list>          
 1 1224   <tibble [47 × 7]> <lm>   <tibble [2 × 5]>
 2 1288   <tibble [25 × 7]> <lm>   <tibble [2 × 5]>
 3 1296   <tibble [48 × 7]> <lm>   <tibble [2 × 5]>
 4 1308   <tibble [20 × 7]> <lm>   <tibble [2 × 5]>
 5 1317   <tibble [48 × 7]> <lm>   <tibble [2 × 5]>
 6 1358   <tibble [30 × 7]> <lm>   <tibble [2 × 5]>
 7 1374   <tibble [28 × 7]> <lm>   <tibble [2 × 5]>
 8 1433   <tibble [35 × 7]> <lm>   <tibble [2 × 5]>
 9 1436   <tibble [44 × 7]> <lm>   <tibble [2 × 5]>
10 1461   <tibble [33 × 7]> <lm>   <tibble [2 × 5]>
# … with 150 more rows

Gebruik het commando unnest om de resultaten te zien.

nested.df %>%
  unnest(model.results)

# A tibble: 320 × 8
# Groups:   school [160]
   school data              model  term        estimate std.e…¹ stati…²  p.value
   <fct>  <list>            <list> <chr>          <dbl>   <dbl>   <dbl>    <dbl>
 1 1224   <tibble [47 × 7]> <lm>   (Intercept)    9.72    1.10   8.87   1.94e-11
 2 1224   <tibble [47 × 7]> <lm>   ses.dev        2.51    1.77   1.42   1.62e- 1
 3 1288   <tibble [25 × 7]> <lm>   (Intercept)   13.5     1.36   9.91   9.12e-10
 4 1288   <tibble [25 × 7]> <lm>   ses.dev        3.26    2.08   1.57   1.31e- 1
 5 1296   <tibble [48 × 7]> <lm>   (Intercept)    7.64    0.774  9.86   6.27e-13
 6 1296   <tibble [48 × 7]> <lm>   ses.dev        1.08    1.21   0.890  3.78e- 1
 7 1308   <tibble [20 × 7]> <lm>   (Intercept)   16.3     1.40  11.6    9.02e-10
 8 1308   <tibble [20 × 7]> <lm>   ses.dev        0.126   3.00   0.0420 9.67e- 1
 9 1317   <tibble [48 × 7]> <lm>   (Intercept)   13.2     0.790 16.7    3.97e-21
10 1317   <tibble [48 × 7]> <lm>   ses.dev        1.27    1.44   0.887  3.80e- 1
# … with 310 more rows, and abbreviated variable names ¹​std.error, ²​statistic

Laten we dat deel vasthouden waarin we geïnteresseerd zijn.

lm.coeff <- nested.df %>%
  unnest(model.results) %>%
  dplyr::select(school, term, estimate)

lm.coeff

# A tibble: 320 × 3
# Groups:   school [160]
   school term        estimate
   <fct>  <chr>          <dbl>
 1 1224   (Intercept)    9.72 
 2 1224   ses.dev        2.51 
 3 1288   (Intercept)   13.5  
 4 1288   ses.dev        3.26 
 5 1296   (Intercept)    7.64 
 6 1296   ses.dev        1.08 
 7 1308   (Intercept)   16.3  
 8 1308   ses.dev        0.126
 9 1317   (Intercept)   13.2  
10 1317   ses.dev        1.27 
# … with 310 more rows

Reshape het (maak er een wijd databestand van) en geef het een andere naam.

lm.coeff %<>%
  # Model intercept en slope in twee kolommen
  pivot_wider(names_from = term, values_from = estimate) %>%
  # Geef de kolommen een andere naam
  dplyr::select(school, intercept = `(Intercept)`, slope = ses.dev)

lm.coeff

# A tibble: 160 × 3
# Groups:   school [160]
   school intercept slope
   <fct>      <dbl> <dbl>
 1 1224        9.72 2.51 
 2 1288       13.5  3.26 
 3 1296        7.64 1.08 
 4 1308       16.3  0.126
 5 1317       13.2  1.27 
 6 1358       11.2  5.07 
 7 1374        9.73 3.85 
 8 1433       19.7  1.85 
 9 1436       18.1  1.60 
10 1461       16.8  6.27 
# … with 150 more rows

Voeg variabelen sector (openbaar, katholiek) en mean.ses (gemiddelde ses) toe aan dit dataframe.

# Creeer dataframe met school ID, schoolsector, mean.ses
lm.df <- df %>% 
  dplyr::select(school, sector, mean.ses) %>%
  distinct

lm.df

# A tibble: 160 × 3
   school sector   mean.ses
   <fct>  <fct>       <dbl>
 1 1224   Public    -0.434 
 2 1288   Public     0.122 
 3 1296   Public    -0.426 
 4 1308   Catholic   0.528 
 5 1317   Catholic   0.345 
 6 1358   Public    -0.0197
 7 1374   Public    -0.0126
 8 1433   Catholic   0.712 
 9 1436   Catholic   0.563 
10 1461   Public     0.677 
# … with 150 more rows

Combineer dit lm.def-bestand met het bestand lm.coeff.

(lm.df %<>%
    left_join(lm.coeff, by="school")
  )

# A tibble: 160 × 5
   school sector   mean.ses intercept slope
   <fct>  <fct>       <dbl>     <dbl> <dbl>
 1 1224   Public    -0.434       9.72 2.51 
 2 1288   Public     0.122      13.5  3.26 
 3 1296   Public    -0.426       7.64 1.08 
 4 1308   Catholic   0.528      16.3  0.126
 5 1317   Catholic   0.345      13.2  1.27 
 6 1358   Public    -0.0197     11.2  5.07 
 7 1374   Public    -0.0126      9.73 3.85 
 8 1433   Catholic   0.712      19.7  1.85 
 9 1436   Catholic   0.563      18.1  1.60 
10 1461   Public     0.677      16.8  6.27 
# … with 150 more rows
…
Op bais van de test (en de waarde van de vastgestelde Chikwadraat statistiek en z’n p-waarde, houden we het random intercept model met vaste slope voor ses.dev aan en kiezen voor : mod5

Op basis van mod5 voorspellen we de waarden voor ses.dev op verschillende niveaus van sector (schoolsector) en mean.ses.

pred.val <- ggpredict(mod5, terms = c("ses.dev", "mean.ses [-1:0.5 by=0.5]", "sector")) %>%
  as_tibble() %>%
  dplyr::rename(ses.dev = x, mathach = predicted, mean.ses = group, sector = facet)

pred.val

# A tibble: 64 × 7
   ses.dev mathach std.error conf.low conf.high mean.ses sector  
     <dbl>   <dbl>     <dbl>    <dbl>     <dbl> <fct>    <fct>   
 1      -4  -0.799     1.20    -3.15       1.56 -1       Public  
 2      -4   6.99      1.54     3.97      10.0  -1       Catholic
 3      -4  -0.220     0.743   -1.68       1.24 -0.5     Public  
 4      -4   7.57      1.03     5.55       9.60 -0.5     Catholic
 5      -4   0.360     0.637   -0.888      1.61 0        Public  
 6      -4   8.15      0.706    6.77       9.54 0        Catholic
 7      -4   0.939     1.00    -1.03       2.90 0.5      Public  
 8      -4   8.73      0.823    7.12      10.3  0.5      Catholic
 9      -3   1.10      0.934   -0.733      2.93 -1       Public  
10      -3   7.25      1.20     4.90       9.60 -1       Catholic
# … with 54 more rows
…
Sla het op als data frame.

(school.effects <- ranef(mod5)$school %>%
  as_tibble(rownames = "school") %>%
    # Dot wordt soms u_j genoemd.
    rename(u_j = `(Intercept)`)
    )

# A tibble: 160 × 2
   school     u_j
   <chr>    <dbl>
 1 1224   -0.0712
 2 1288    0.453 
 3 1296   -1.68  
 4 1308    0.0479
 5 1317   -1.53  
 6 1358   -0.539 
 7 1374   -1.50  
 8 1433    1.78  
 9 1436    1.30  
10 1461    0.748 
# … with 150 more rows

Merk op dat school naar factor moet worden overgezet.

school.effects %<>% 
  mutate(school = factor(school))

# Voeg sector en mean.ses aan het dataframe van random effecten toe.
# Onthoud dat deze variabelen hierin zitten. 
lm.df

# A tibble: 160 × 5
   school sector   mean.ses intercept slope
   <fct>  <fct>       <dbl>     <dbl> <dbl>
 1 1224   Public    -0.434       9.72 2.51 
 2 1288   Public     0.122      13.5  3.26 
 3 1296   Public    -0.426       7.64 1.08 
 4 1308   Catholic   0.528      16.3  0.126
 5 1317   Catholic   0.345      13.2  1.27 
 6 1358   Public    -0.0197     11.2  5.07 
 7 1374   Public    -0.0126      9.73 3.85 
 8 1433   Catholic   0.712      19.7  1.85 
 9 1436   Catholic   0.563      18.1  1.60 
10 1461   Public     0.677      16.8  6.27 
# … with 150 more rows

Koppel deze databestanden.

school.effects %<>%
  left_join(lm.df, by="school") %>%
  dplyr::select(school, u_j, sector, mean.ses)
  
school.effects

# A tibble: 160 × 4
   school     u_j sector   mean.ses
   <fct>    <dbl> <fct>       <dbl>
 1 1224   -0.0712 Public    -0.434 
 2 1288    0.453  Public     0.122 
 3 1296   -1.68   Public    -0.426 
 4 1308    0.0479 Catholic   0.528 
 5 1317   -1.53   Catholic   0.345 
 6 1358   -0.539  Public    -0.0197
 7 1374   -1.50   Public    -0.0126
 8 1433    1.78   Catholic   0.712 
 9 1436    1.30   Catholic   0.563 
10 1461    0.748  Public     0.677 
# … with 150 more rows

Voeg een kolom met een vaste intercept-schatting toe. Onthoud dat dit verschillend is voor Katholieke vs Openbare scholen. We gebruiken dplyr::case_when() om vaste intercept schatting te maken voor elke school afhankelijk van de sector.

school.effects %<>%
  mutate(fixed.int = case_when(
    sector == "Public" ~ fixed_int_pub,
    sector == "Catholic" ~ fixed_int_cat
  ))

# Bekijk resultaten
school.effects

# A tibble: 160 × 5
   school     u_j sector   mean.ses fixed.int
   <fct>    <dbl> <fct>       <dbl>     <dbl>
 1 1224   -0.0712 Public    -0.434       12.1
 2 1288    0.453  Public     0.122       12.1
 3 1296   -1.68   Public    -0.426       12.1
 4 1308    0.0479 Catholic   0.528       13.4
 5 1317   -1.53   Catholic   0.345       13.4
 6 1358   -0.539  Public    -0.0197      12.1
 7 1374   -1.50   Public    -0.0126      12.1
 8 1433    1.78   Catholic   0.712       13.4
 9 1436    1.30   Catholic   0.563       13.4
10 1461    0.748  Public     0.677       12.1
# … with 150 more rows
…
